{
  "label": "Bronie (Markowe)",
  "mapping": {
    "dvTable": "system.dvTable"
  },
  "entries": {
    "Avenger": {
      "name": "Avenger",
      "description": "<p>Nadający się do ukrycia, średniej wielkości pistolet. +1 do testów broni.</p>",
      "dvTable": "PT Pistolety"
    },
    "Bearcat": {
      "name": "Bearcat",
      "description": "<p> Składany łuk z logiem Eagletech, przeładowywany w ramach akcji Ataku.</p>\n<p>+1 do testów broni.</p>",
      "dvTable": "PT Łuki i kusze"
    },
    "Boomer Buster": {
      "name": "Boomer Buster",
      "description": "<p>Bardzo ciężki pistolet. Nie może zostać ukryty. +1 do testów broni</p>",
      "dvTable": "PT Pistolety"
    },
    "Bulldog": {
      "name": "Bulldog",
      "description": "<p>Wielozadaniowa strzelba. +1 do testów broni.</p>",
      "dvTable": "PT Strzelba (Pocisk)"
    },
    "City Reaper": {
      "name": "City Reaper",
      "description": "<p> Ciężki pistolet maszynowy. Ze względu na rozmiar nie może zostać ukryty. Jeżeli wyrzucisz 1 w teście broni (Krytyczny pech) broń zacina się i wymaga akcji by ją wyczyścić.</p>",
      "dvTable": "PT PM-y"
    },
    "Cityhunter": {
      "name": "Cityhunter",
      "description": "<p>Nadający się do ukrycia ciężki pistolet. +1 do testów broni.</p>",
      "dvTable": "PT Pistolety"
    },
    "Dragon": {
      "name": "Smok",
      "description": "<p>Standardowy karabin szturmowy. +1 do testów broni.</p>",
      "dvTable": "PT Karabiny szturmowe"
    },
    "Home Defender": {
      "name": "Home Defender",
      "description": "<p>Wielozadaniowa strzelba. Jeżeli wyrzucisz 1 w teście broni (Krytyczny pech) broń zacina się i wymaga akcji, by ją wyczyścić. </p>",
      "dvTable": "PT Strzelba (Pocisk)"
    },
    "Hotshot": {
      "name": "Hotshot",
      "description": "<p>Wytoczyć duże działa. Ta wyrzutnia rakiet zada trochę obrażeń. +1 do testów broni.</p>",
      "dvTable": "PT Wyrzutnie rakiet"
    },
    "Hunter": {
      "name": "Hunter",
      "description": "<p>Słabej jakości kusza z logiem GunMart, przeładowywany w ramach akcji Ataku.</p> <p>Jeżeli wyrzucisz 1 w teście broni (Krytyczny pech) broń zacina się i wymaga akcji, by ją wyczyścić.</p>",
      "dvTable": "PT Łuki i kusze"
    },
    "Jungle Reaper": {
      "name": "Jungle Reaper",
      "description": "<p>Standardowy karabin szturmowy. Jeżeli wyrzucisz 1 w teście broni (Krytyczny pech) broń zacina się i wymaga akcji, by ją wyczyścić.</p>",
      "dvTable": "PT Karabiny szturmowe"
    },
    "Long Rifle": {
      "name": "Long Rifle",
      "description": "<p>Długodystansowy karabin snajperski. Posiada 4 pociski w magazynku.</p>",
      "dvTable": "PT Karabiny snajperskie"
    },
    "Magnum": {
      "name": "Magnum",
      "description": "<p>Nadający się do ukrycia ciężki pistolet. Jeżeli wyrzucisz 1 w teście broni (Krytyczny pech) broń zacina się i wymaga akcji, by ją wyczyścić. </p>",
      "dvTable": "PT Pistolety"
    },
    "Mark III": {
      "name": "Mark III",
      "description": "<p>Nadający się do ukrycia ciężki pistolet. </p>",
      "dvTable": "PT Pistolety"
    },
    "Minami 10": {
      "name": "Minami 10",
      "description": "<p>Nadający się do ukrycia pistolet maszynowy. +1 do testów broni.</p>",
      "dvTable": "PT PM-y"
    },
    "Mini-Gat": {
      "name": "Mini-Gat",
      "description": "<p>Nadający się do ukrycia pistolet maszynowy. </p>",
      "dvTable": "PT PM-y"
    },
    "Mini-Grenade": {
      "name": "Mini-Grenade",
      "description": "<p>Granatnik o dużym zasięgu działania. Można używać z różnymi granatami. </p>",
      "dvTable": "PT Granatniki"
    },
    "P-35": {
      "name": "P-35",
      "description": "<p>Bardzo ciężki pistolet. Nie może zostać ukryty. </p>",
      "dvTable": "PT Pistolety"
    },
    "Rapid Assault": {
      "name": "Rapid Assult",
      "description": "<p>Wielozadaniowa strzelba. </p>",
      "dvTable": "PT Strzelba (Pocisk)"
    },
    "Ronin": {
      "name": "Ronin",
      "description": "<p>Standardowy karabin szturmowy. </p>",
      "dvTable": "PT Karabiny szturmowe"
    },
    "Scorpion": {
      "name": "Skorpion",
      "description": "<p>Wymuskana kusza z logiem Eagletech, przeładowywana w ramach akcji ataku.</p>\n<p>+1 do testów broni.</p>",
      "dvTable": "PT Łuki i kusze"
    },
    "Sherwood": {
      "name": "Sherwood",
      "description": "<p>Słabej jakości łuk z logiem GunMart, przeładowywany w ramach akcji ataku..</p> <p>Jeżeli wyrzucisz 1 w teście broni (Krytyczny pech) broń zacina się i wymaga akcji, by ją wyczyścić. </p>",
      "dvTable": "PT Łuki i kusze"
    },
    "SMG-21": {
      "name": "SMG-21",
      "description": "<p>Ciężki pistolet maszynowy. Z powodu swojego rozmiaru nie może zostać ukryty. </p>",
      "dvTable": "PT PM-y"
    },
    "Snipe-Star": {
      "name": "Snipe-Star",
      "description": "<p>Długodystansowy karabin snajperski. Posiada 4 pociski w magazynku. Jeżeli wyrzucisz 1 w teście broni (Krytyczny pech) broń zacina się i wymaga akcji, by ją wyczyścić. </p>",
      "dvTable": "PT Karabiny snajperskie"
    },
    "Streetmaster": {
      "name": "Streetmaster",
      "description": "<p>Nadający się do ukrycia średniej wielkości pistolet. Jeżeli wyrzucisz 1 w teście broni (Krytyczny pech) broń zacina się i wymaga akcji, by ją wyczyścić. </p>",
      "dvTable": "PT Pistolety"
    },
    "Striker": {
      "name": "Striker",
      "description": "<p> Kusza z logiem Eagletech, przeładowywana w ramach akcji Ataku.</p>",
      "dvTable": "PT Łuki i kusze"
    },
    "Super Chief": {
      "name": "Super Chief",
      "description": "<p>Bardzo ciężki pistolet. Nie może zostać ukryty. Jeżeli wyrzucisz 1 w teście broni (Krytyczny pech) broń zacina się i wymaga akcji, by ją wyczyścić. </p>",
      "dvTable": "PT Pistolety"
    },
    "Tech-Assault III": {
      "name": "Tech-Assault III",
      "description": "<p>Nadający się do ukrycia pistolet maszynowy. Jeżeli wyrzucisz 1 w teście broni (Krytyczny pech) broń zacina się i wymaga akcji, by ją wyczyścić. </p>",
      "dvTable": "PT PM-y"
    },
    "Tomcat": {
      "name": "Tomcat",
      "description": "<p>Zrewitalizowany łuk z logiem Eagletech, przeładowywany w ramach akcji Ataku.</p>",
      "dvTable": "PT Łuki i kusze"
    },
    "Type-18": {
      "name": "Type-18",
      "description": "<p>Granatnik o dużym zasięgu działania. Można używać z różnymi granatami.  +1 do testów broni.</p>",
      "dvTable": "PT Granatniki"
    },
    "Type-G": {
      "name": "Type-G",
      "description": "<p>Granatnik o dużym zasięgu działania. Można używać z różnymi granatami. Jeżeli wyrzucisz 1 w teście broni (Krytyczny pech) broń zacina się i wymaga akcji, by ją wyczyścić.</p>",
      "dvTable": "PT Granatniki"
    },
    "Type-R": {
      "name": "Type-R",
      "description": "<p>Wytoczyć duże działa. Ta wyrzutnia rakiet zada trochę obrażeń. Jeżeli wyrzucisz 1 w teście broni (Krytyczny pech) broń zacina się i wymaga akcji, by ją wyczyścić. </p>",
      "dvTable": "PT Wyrzutnie rakiet"
    },
    "Urban": {
      "name": "Urban",
      "description": "<p>Wytoczyć duże działa. Ta wyrzutnia rakiet zada trochę obrażeń. </p>",
      "dvTable": "PT Wyrzutnie rakiet"
    },
    "Viper": {
      "name": "Viper",
      "description": "<p>Ciężki pistolet maszynowy. Z powodu swojego rozmiaru nie może zostać ukryty. +1 do testów broni.</p>",
      "dvTable": "PT PM-y"
    },
    "WSSA Sniper System": {
      "name": "WSSA Sniper System",
      "description": "<p>Długodystansowy karabin snajperski. Posiada 4 pociski w magazynku. +1 do ataku.</p>",
      "dvTable": "PT Karabiny snajperskie"
    },
    "X-9mm": {
      "name": "X-9mm",
      "description": "<p>Nadający się do ukrycia, średniej wielkości pistolet. </p>",
      "dvTable": "PT Pistolety"
    }
  }
}