{
  "label": "アプリ",
  "mapping": {},
  "entries": {
    "4Tify": {
      "name": "4Tify",
      "description": "<p>An app for your agent. Can reveals weak points by scanning your home. Or a section of cover...</p>\n<p>Full rules can be found on page 13.</p>"
    },
    "City Database": {
      "name": "シティ・データベース",
      "description": "<p>An app for your agent. Find the best adresses in town with this city guide. Full rules on page 14.</p>"
    },
    "Digital Gladiator": {
      "name": "デジタル・グラディエーター",
      "description": "<p>An app for your agent. Create a virtual Solo and take your fights into the digital realm!</p>\n<p>Rules for fights can be found on page 12.</p>"
    },
    "MedScan": {
      "name": "メドスキャン",
      "description": "<p>An app for your agent. Medical video conferencing, helping you to perfer first aid, for a price. Full rules can be found on page 14.</p>"
    },
    "NCPD Crime Database": {
      "name": "NCPD犯罪者データベース",
      "description": "<p>An app for your agent. Allows the user to look up public criminal information. Full rules for using can be found on page 13.</p>\n<p>&nbsp;</p>"
    }
  }
}