{
  "label": "Броня",
  "mapping": {},
  "entries": {
    "AirRider": {
      "name": "Воздушный наездник",
      "description": "<p>Кевларовый жилет, позволяющий игнорировать критическое ранение «Травма шеи» при авариях, пока есть заряженный баллон с CO<sub>2</sub> *.</p>\n<p><em>*Необходимо добавить вручную после получения брони.</em></p>"
    },
    "Bunker Gear": {
      "name": "Боевая одежда пожарного",
      "description": "<p>Огнеупорный костюм сапёра со встроенным респиратором и баллоном с кислородом на тридцать минут. Баллон заполняется автоматически в течение часа. -4 к РЕА, ЛВК и СКО.</p>"
    },
    "Corporate Island": {
      "name": "Корпоративный остров",
      "description": "<p>Лёгкий бронекостюм, который выглядит как одежда делового стиля.</p>"
    },
    "Dirk Combat Jacket": {
      "name": "Боевая куртка «Кинжал»",
      "description": "<p>Лёгкий бронекостюм, выполненный в стиле «спортивки», в котором можно спрятать два стандартных магазина без проверки.</p>"
    },
    "Executive Armor": {
      "name": "Броня администратора",
      "description": "<p>Лёгкий бронекостюм, который выглядит как одежда делового стиля. Восстанавливает 1ОС каждый день, пока броня не получает повреждений.</p>"
    },
    "Laser Light Street Jacket": {
      "name": "Лазерная уличная куртка",
      "description": "<p>Лёгкий бронекостюм, выполненный в стиле «городской эпатаж», который считается за светотату пока надет.</p>"
    },
    "Lotos Netsuit": {
      "name": "Сетевой костюм «Лотос»",
      "description": "<p>Костюм для нетраннинга с одним дополнительным разъёмом для аппаратного обеспечения кибердеки, которое автоматически снимается вместе с костюмом. В комплекте идёт кибердека отличного качества*. -2 к РЕА, ЛВК и СКО.</p>\n<p><em>*Необходимо добавить вручную после получения брони.</em></p>"
    },
    "MechaMan Motorcycle Helmet": {
      "name": "Мотоциклетный шлем «Мехамэн»",
      "description": "<p>Кевларовый мотоциклетный шлем со встроенными умными очками, в которые установлены «Хирон» и «Слабое освещение/ИК/УФ*.</p>\n<p><em>*Умные очки и связанные с ними расширения кибероптики необходимо добавить и установить вручную после получения брони.</em></p>"
    },
    "Mimic Clothing (Asia Pop)": {
      "name": "Имитированная одежа (Азия поп)",
      "description": "<p>Лёгкий бронекостюм, изготовленный из набора имитирования одежды и одежды стиля «Азия поп».</p>"
    },
    "Mimic Clothing (Bag Lady Chic)": {
      "name": "Имитированная одежда (бомжатский прикид)",
      "description": "<p>Лёгкий бронекостюм, изготовленный из набора имитирования одежды и одежды стиля «бомжатский прикид».</p>"
    },
    "Mimic Clothing (Bohemian)": {
      "name": "Имитированная одежда (бохо)",
      "description": "<p>Лёгкий бронекостюм, изготовленный из набора имитирования одежды и одежды стиля «бохо».</p>"
    },
    "Mimic Clothing (Businesswear)": {
      "name": "Имитированная одежда (деловой стиль)",
      "description": "<p>Лёгкий бронекостюм, изготовленный из набора имитирования одежды и одежды делового стиля.</p>"
    },
    "Mimic Clothing (Gang Colors)": {
      "name": "Имитированная одежда (одежда банды)",
      "description": "<p>Лёгкий бронекостюм, изготовленный из набора имитирования одежды и одежды стиля «одежда банды».</p>"
    },
    "Mimic Clothing (Generic Chic)": {
      "name": "Имитированная одежда (обычный прикид)",
      "description": "<p>Лёгкий бронекостюм, изготовленный из набора имитирования одежды и одежды стиля «обычный прикид».</p>"
    },
    "Mimic Clothing (High Fashion)": {
      "name": "Имитированная одежда (высокая мода)",
      "description": "<p>Лёгкий бронекостюм, изготовленный из набора имитирования одежды и одежды стиля «высокая мода».</p>"
    },
    "Mimic Clothing (Leisurewear)": {
      "name": "Имитированная одежда (спортивки)",
      "description": "<p>Лёгкий бронекостюм, изготовленный из набора имитирования одежды и одежды стиля «спортивки».</p>"
    },
    "Mimic Clothing (Nomad Leathers)": {
      "name": "Имитированная одежда (одеяния кочевников)",
      "description": "<p>Лёгкий бронекостюм, изготовленный из набора имитирования одежды и одежды стиля «одеяния кочевников».</p>"
    },
    "Mimic Clothing (Urban Flash)": {
      "name": "Имитированная одежда (городской эпатаж)",
      "description": "<p>Лёгкий бронекостюм, изготовленный из набора имитирования одежды и одежды стиля «городской эпатаж».</p>"
    },
    "Montage Variable Clothing Line": {
      "name": "Линия варьирующейся одежды",
      "description": "<p>Лёгкий бронекостюм, который может действием переключаться между стилями «обычный прикид» и «одежда банды», выбирая дизайны из приобретённых (20eb/шт) и установленных на агент образцов. Один образец на выбор идёт в комплекте.</p>"
    },
    "Shock Armor": {
      "name": "Шоковая броня",
      "description": "<p>Кевларовый жилет, бьющий током любого, кто попытается взять тебя в захват.</p>"
    },
    "Skid Row Trench": {
      "name": "Плащ «Бродяга»",
      "description": "<p>Костюм сапёра, выполненный в виде плаща, что несколько снижает защиту. -4 к РЕА, ЛВК и СКО.</p>"
    },
    "Street Viper Riding Suit": {
      "name": "Ездовой костюм «Уличная гадюка»",
      "description": "<p>Кевларовый жилет с двумя единицами встроенного среднего оружия ближнего боя*. Они всегда считаются готовыми к бою, пока броня надета.</p>\n<p><em>*Необходимо добавить вручную после получения брони.</em></p>"
    },
    "Tactical Smart Armor": {
      "name": "Тактическая умная броня",
      "description": "<p>Полный средний бронекостюм со встроенными умными очками*. -2 к РЕА, ЛВК и СКО.</p>\n<p><em>*Необходимо добавить вручную после получения брони.</em></p>"
    }
  }
}