{
  "label": "Одежда",
  "mapping": {},
  "entries": {
    "Holo-Wear": {
      "name": "Голо-одежда",
      "description": "<p>Голографическая одежда, которую можно отключить ЭМИ на минуту. Приобретённые стили можно менять действием.</p>"
    }
  }
}