{
  "label": "Оружие известных марок",
  "mapping": {
    "dvTable": "system.dvTable"
  },
  "entries": {
    "Avenger": {
      "name": "Мститель",
      "description": "<p>Пистолет среднего калибра, который можно спрятать.</p>\n<p>+1 к атаке.</p>",
      "dvTable": "СЛ Пистолет"
    },
    "Bearcat": {
      "name": "Бинтуронг",
      "description": "<p>Складной лук с логотипом Иглтех. Перезарядка является частью действия атаки.</p>\n<p>+1 к атаке.</p>",
      "dvTable": "СЛ Луки и арбалеты"
    },
    "Boomer Buster": {
      "name": "Бумер бастер",
      "description": "<p>Пистолет сверхкрупного калибра. Не может быть спрятан.</p>\n<p>+1 к атаке.</p>",
      "dvTable": "СЛ Пистолет"
    },
    "Bulldog": {
      "name": "Бульдог",
      "description": "<p>Старый добрый универсальный дробовик.</p>\n<p>+1 к атаке.</p>",
      "dvTable": "СЛ Дробовик (Жакан)"
    },
    "City Reaper": {
      "name": "Городской жнец",
      "description": "<p>ПП крупного калибра. Из-за габаритов его нельзя спрятать.</p>\n<p>Если выпадает единица на атаку (критический провал), возникает неисправность, для устранения которой потребуется действие.</p>",
      "dvTable": "СЛ ПП"
    },
    "Cityhunter": {
      "name": "Городской охотник",
      "description": "<p>Пистолет крупного калибра, который можно спрятать.</p>\n<p>+1 к атаке.</p>",
      "dvTable": "СЛ Пистолет"
    },
    "Dragon": {
      "name": "Дракон",
      "description": "<p>Стандартная штурмовая винтовка.</p>\n<p>+1 к атаке.</p>",
      "dvTable": "СЛ Штурмовая винтовка"
    },
    "Home Defender": {
      "name": "Хоум дефендер",
      "description": "<p>Старый добрый универсальный дробовик.</p>\n<p>Если выпадает единица на атаку (критический провал), возникает неисправность, для устранения которой потребуется действие.</p>",
      "dvTable": "СЛ Дробовик (Жакан)"
    },
    "Hotshot": {
      "name": "Пижон",
      "description": "<p>Время больших стволов. Эта ракетница жахнет как надо.</p>\n<p>+1 к атаке.</p>",
      "dvTable": "СЛ Ракетница"
    },
    "Hunter": {
      "name": "Охотник",
      "description": "<p>Арбалет плохого качества с логотипом ГанМарта. Перезарядка является частью действия атаки.</p>\n<p>Если выпадает единица на атаку (критический провал), возникает неисправность, для устранения которой потребуется действие.</p>",
      "dvTable": "СЛ Луки и арбалеты"
    },
    "Jungle Reaper": {
      "name": "Жнец джунглей",
      "description": "<p>Стандартная штурмовая винтовка.</p>\n<p>Если выпадает единица на атаку (критический провал), возникает неисправность, для устранения которой потребуется действие.</p>",
      "dvTable": "СЛ Штурмовая винтовка"
    },
    "Long Rifle": {
      "name": "Длинностволка",
      "description": "<p>Дальнобойная снайперская винтовка. В магазине четыре патрона.</p>",
      "dvTable": "СЛ Снайперская винтовка"
    },
    "Magnum": {
      "name": "Магнум",
      "description": "<p>Пистолет крупного калибра, который можно спрятать.</p>\n<p>Если выпадает единица на атаку (критический провал), возникает неисправность, для устранения которой потребуется действие.</p>",
      "dvTable": "СЛ Пистолет"
    },
    "Mark III": {
      "name": "Марк III",
      "description": "<p>Пистолет крупного калибра, который можно спрятать.</p>",
      "dvTable": "СЛ Пистолет"
    },
    "Minami 10": {
      "name": "Минами 10",
      "description": "<p>ПП, который можно спрятать.</p>\n<p>+1 к атаке.</p>",
      "dvTable": "СЛ ПП"
    },
    "Mini-Gat": {
      "name": "Мини-гэт",
      "description": "<p>ПП, который можно спрятать.</p>",
      "dvTable": "СЛ ПП"
    },
    "Mini-Grenade": {
      "name": "Мини-гренейд",
      "description": "<p>Мощный гранатомёт, использующий множество типов гранат.</p>",
      "dvTable": "СЛ Гранатомёт"
    },
    "P-35": {
      "name": "П-35",
      "description": "<p>Пистолет сверхкрупного калибра. Не может быть спрятан.</p>",
      "dvTable": "СЛ Пистолет"
    },
    "Rapid Assault": {
      "name": "Стремительный штурм",
      "description": "<p>Старый добрый универсальный дробовик.</p>",
      "dvTable": "СЛ Дробовик (Жекан)"
    },
    "Ronin": {
      "name": "Ронин",
      "description": "<p>Стандартная штурмовая винтовка.</p>",
      "dvTable": "СЛ Штурмовая винтовка"
    },
    "Scorpion": {
      "name": "Скорпион",
      "description": "<p>Изящный арбалет с логотипом Иглтех. Перезарядка является частью действия атаки.</p>\n<p>+1 к атаке.</p>",
      "dvTable": "СЛ Луки и арбалеты"
    },
    "Sherwood": {
      "name": "Шервуд",
      "description": "<p>Лук плохого качества с логотипом ГанМарта. Перезарядка является частью действия атаки.</p>\n<p>Если выпадает единица на атаку (критический провал), возникает неисправность, для устранения которой потребуется действие.</p>",
      "dvTable": "СЛ Луки и арбалеты"
    },
    "SMG-21": {
      "name": "ПП-21",
      "description": "<p>ПП крупного калибра. Из-за габаритов его нельзя спрятать.</p>",
      "dvTable": "СЛ ПП"
    },
    "Snipe-Star": {
      "name": "Снайп-стар",
      "description": "<p>Дальнобойная снайперская винтовка. В магазине четыре патрона.</p>\n<p>Если выпадает единица на атаку (критический провал), возникает неисправность, для устранения которой потребуется действие.</p>",
      "dvTable": "СЛ Снайперская винтовка"
    },
    "Streetmaster": {
      "name": "Властелин улиц",
      "description": "<p>Пистолет среднего калибра, который можно спрятать.</p>\n<p>Если выпадает единица на атаку (критический провал), возникает неисправность, для устранения которой потребуется действие.</p>",
      "dvTable": "СЛ Пистолет"
    },
    "Striker": {
      "name": "Страйкер",
      "description": "<p>Арбалет с логотипом Иглтех. Перезарядка является частью действия атаки.</p>",
      "dvTable": "СЛ Луки и арбалеты"
    },
    "Super Chief": {
      "name": "Супер чиф",
      "description": "<p>Пистолет сверхкрупного калибра. Не может быть спрятан.</p>\n<p>Если выпадает единица на атаку (критический провал), возникает неисправность, для устранения которой потребуется действие.</p>",
      "dvTable": "СЛ Пистолет"
    },
    "Tech-Assault III": {
      "name": "Техноштурм III",
      "description": "<p>ПП, который можно спрятать.</p>\n<p>Если выпадает единица на атаку (критический провал), возникает неисправность, для устранения которой потребуется действие.</p>",
      "dvTable": "СЛ ПП"
    },
    "Tomcat": {
      "name": "Мартовский кот",
      "description": "<p>Снова вошедший в моду лук с логотипом Иглтеха. Перезарядка является частью действия атаки.</p>",
      "dvTable": "СЛ Луки и арбалеты"
    },
    "Type-18": {
      "name": "Тип-18",
      "description": "<p>Мощный гранатомёт, использующий множество типов гранат.</p>\n<p>+1 к атаке.</p>",
      "dvTable": "СЛ Гранатомёт"
    },
    "Type-G": {
      "name": "Тип-G",
      "description": "<p>Мощный гранатомёт, использующий множество типов гранат.</p>\n<p>Если выпадает единица на атаку (критический провал), возникает неисправность, для устранения которой потребуется действие.</p>",
      "dvTable": "СЛ Гранатомёт"
    },
    "Type-R": {
      "name": "Тип-R",
      "description": "<p>Время больших стволов. Эта ракетница жахнет как надо.</p>\n<p>Если выпадает единица на атаку (критический провал), возникает неисправность, для устранения которой потребуется действие.</p>",
      "dvTable": "СЛ Ракетница"
    },
    "Urban": {
      "name": "Урбан",
      "description": "<p>Время больших стволов. Эта ракетница жахнет как надо.</p>",
      "dvTable": "СЛ Ракетница"
    },
    "Viper": {
      "name": "Гадюка",
      "description": "<p>ПП крупного калибра. Из-за габаритов его нельзя спрятать.</p>\n<p>+1 к атаке.</p>",
      "dvTable": "СЛ ПП"
    },
    "WSSA Sniper System": {
      "name": "Снайперская система WSSA",
      "description": "<p>Дальнобойная снайперская винтовка. В магазине четыре патрона.</p>\n<p>+1 к атаке.</p>",
      "dvTable": "СЛ Снайперская винтовка"
    },
    "X-9mm": {
      "name": "X-9мм",
      "description": "<p>Пистолет среднего калибра, который можно спрятать.</p>",
      "dvTable": "СЛ Пистолет"
    }
  }
}