{
  "label": "Armes",
  "mapping": {
    "dvTable": "system.tableSD"
  },
  "entries": {
    "Air Pistol": {
      "name": "Pistolet à air comprimé",
      "description": "<p>Pistolet moyen exotique. Tire des billes de peinture. Si chargé avec de l'acide, peut réduire une armure à chaque impact. Reportez-vous à la description complète de l'article p. 349.</p>",
      "dvTable": "SD Pistolet"
    },
    "Assault Rifle (Excellent)": {
      "name": "Fusil d'assaut +",
      "description": "<p>Un fusil d'assaut. +1 au jet d'attaque.</p>",
      "dvTable": "SD Fusil d'assaut"
    },
    "Assault Rifle (Poor)": {
      "name": "Fusil d'assaut -",
      "description": "<p>Un fusil d'assaut. Si vous faites 1 sur un jet d'attaque (Échec critique) l'arme est enrayée et cela nécessite une action pour le désenrayer.</p>",
      "dvTable": "SD Fusil d'assaut"
    },
    "Assault Rifle": {
      "name": "Fusil d'assaut",
      "description": "<p>Un fusil d'assaut ordinaire. </p>",
      "dvTable": "SD Fusil d'assaut"
    },
    "Baseball Bat (Excellent)": {
      "name": "Batte de baseball +",
      "description": "<p>Une batte de baseball ordinaire. +1 au jet d'attaque.</p>"
    },
    "Baseball Bat (Poor)": {
      "name": "Batte de baseball -",
      "description": "<p>Une batte de baseball ordinaire. Si vous faites 1 sur un jet d'attaque (Échec critique) l'attaque échoue et cela nécessite une action afin que l'arme soit à nouveau utilisable.</p>"
    },
    "Baseball Bat": {
      "name": "Batte de baseball",
      "description": "<p>Une batte de baseball ordinaire. </p>"
    },
    "Bow (Excellent)": {
      "name": "Arc +",
      "description": "<p>Un arc qualité excellente, rechargement compris dans l'action d'attaque.</p>\n<p>+1 à l'attaque.</p>",
      "dvTable": "SD Arcs et arbalètes"
    },
    "Bow (Poor)": {
      "name": "Arc -",
      "description": "<p>Un arc qualité mauvaise, rechargement compris dans l'action d'attaque.</p><p>Si vous faites 1 sur un jet d'attaque (Échec critique) l'attaque échoue et cela nécessite une action afin que l'arme soit à nouveau utilisable.</p>",
      "dvTable": "SD Arcs et arbalètes"
    },
    "Bow": {
      "name": "Arc",
      "description": "<p>Un arc revitalisé, rechargement compris dans l'action d'attaque.</p>",
      "dvTable": "SD Arcs et arbalètes"
    },
    "Chainsaw (Excellent)": {
      "name": "Tronçonneuse +",
      "description": "<p>Une Tronçonneuse qui fonctionne avec du CHOOH². 2-3 heures d'utilisation par réservoir. +1 au jet d'attaque.</p>"
    },
    "Chainsaw (Poor)": {
      "name": "Tronçonneuse -",
      "description": "<p>Une Tronçonneuse qui fonctionne avec du CHOOH². 2-3 heures d'utilisation par réservoir. Si vous faites 1 sur un jet d'attaque (Échec critique) l'attaque échoue et cela nécessite une action afin que l'arme soit à nouveau utilisable.</p>"
    },
    "Chainsaw": {
      "name": "Tronçonneuse",
      "description": "<p>Une Tronçonneuse qui fonctionne avec du CHOOH². 2-3 heures d'utilisation par réservoir.</p>"
    },
    "Combat Knife (Excellent)": {
      "name": "Couteau de Combat +",
      "description": "<p>Un couteau adapté aux combats de rues. +1 au jet d'attaque.</p>"
    },
    "Combat Knife (Poor)": {
      "name": "Couteau de Combat -",
      "description": "<p>Un couteau adapté aux combats de rues. Si vous faites 1 sur un jet d'attaque (Échec critique) l'attaque échoue et cela nécessite une action afin que l'arme soit à nouveau utilisable.</p>"
    },
    "Combat Knife": {
      "name": "Couteau de Combat",
      "description": "<p>Un couteau adapté aux combats de rues.</p>"
    },
    "Crossbow (Excellent)": {
      "name": "Arbalète +",
      "description": "<p>Une arbalète qualité excellente, rechargement compris dans l'action d'attaque.</p>\n<p>+1 à l'attaque.</p>",
      "dvTable": "SD Arcs et arbalètes"
    },
    "Crossbow (Poor)": {
      "name": "Arbalète -",
      "description": "<p>Une arbalète moderne qualité mauvaise, rechargement compris dans l'attaque.</p><p>Si vous faites 1 sur un jet d'attaque (Échec critique) l'attaque échoue et cela nécessite une action afin que l'arme soit à nouveau utilisable.</p>",
      "dvTable": "SD Arcs et arbalètes"
    },
    "Crossbow": {
      "name": "Arbalète",
      "description": "<p>Une arbalète, rechargement compris dans l'action d'attaque.</p>",
      "dvTable": "SD Arcs et arbalètes"
    },
    "Crowbar (Excellent)": {
      "name": "Pied de biche +",
      "description": "<p>Utile comme outil et en tant qu'arme. +1 au jet d'attaque.</p>"
    },
    "Crowbar (Poor)": {
      "name": "Pied de biche -",
      "description": "<p>Utile comme outil et en tant qu'arme. Si vous faites 1 sur un jet d'attaque (Échec critique) l'attaque échoue et cela nécessite une action afin que l'arme soit à nouveau utilisable. </p>"
    },
    "Crowbar": {
      "name": "Pied de biche",
      "description": "<p>Utile comme outil et en tant qu'arme.</p>"
    },
    "Dartgun": {
      "name": "Pistolet à fléchettes",
      "description": "<p>Un pistolet exotique très lourd qu'on ne peut charger qu'avec des munitions de type flèche. Contrairement aux autres\narmes tirant des flèches, le pistolet à fléchettes est muni d'un chargeur spécial de 8 flèches et doit être rechargé comme\nun pistolet très lourd standard</p>",
      "dvTable": "SD Pistolet"
    },
    "EMG-86 Railgun": {
      "name": "Canon électrique EMG-86",
      "description": "<p>Fusil d'assaut exotique. Il ne peut pas faire de tirs ciblés ou de tirs automatiques. Nécessite COR 11 ou plus (sauf s'il est monté). Ignore toute armure en dessous de PA11*. Reportez-vous à la description complète de l'élément en p. 347.</p>\n<p><em>*Non pris en charge pour le moment, appliquer manuellement les dégâts aux cibles blindées</em></p>",
      "dvTable": "SD Fusil d'assaut"
    },
    "Flamethrower": {
      "name": "Crache-feu",
      "description": "<p>Un fusil à pompe exotique qui utilise la compétence Armes lourdes. Reportez-vous à la description complète de l'objet p. 347.</p>",
      "dvTable": "SD Fusil à pompe (Slug)"
    },
    "Grenade Launcher (Excellent)": {
      "name": "Lance-grenades +",
      "description": "<p>Lance-grenades avec lesquels vous pouvez utiliser une grande variété de grenades. +1 au jet d'attaque.</p>",
      "dvTable": "SD Lance-grenades"
    },
    "Grenade Launcher (Poor)": {
      "name": "Lance-grenades -",
      "description": "<p>Lance-grenades avec lesquels vous pouvez utiliser une grande variété de grenades. Si vous faites 1 sur un jet d'attaque (Échec critique) l'arme est enrayée et cela nécessite une action pour le désenrayer.</p>",
      "dvTable": "SD Lance-grenades"
    },
    "Grenade Launcher": {
      "name": "Lance-grenades",
      "description": "<p>Lance-grenades avec lesquels vous pouvez utiliser une grande variété de grenades.</p>",
      "dvTable": "SD Lance-grenades"
    },
    "Heavy Melee (Excellent)": {
      "name": "Arme de mêlée lourde (Excellent)",
      "description": "<p>Arme de mêlée lourde de qualité excellente.</p>\n<p>+1 à l'attaque.</p>"
    },
    "Heavy Melee (Poor)": {
      "name": "Arme de mêlée Lourde (Mauvais)",
      "description": "<p>Arme de mêlée lourde générique de mauvaise qualité.</p>\n<p>Si vous tirez un 1 sur un jet d'attaque (échec critique) l'arme échoue d'une certaine manière et nécessite une action pour être à nouveau utilisable.<p>\n<p>&nbsp;</p>"
    },
    "Heavy Melee": {
      "name": "Arme de mêlée Lourde",
      "description": "<p>Arme de mêlée lourde générique</p>"
    },
    "Heavy Pistol (Excellent)": {
      "name": "Pistolet lourd +",
      "description": "<p>Un pistolet lourd. Dissimulable. +1 au jet d'attaque.</p>",
      "dvTable": "SD Pistolet"
    },
    "Heavy Pistol (Poor)": {
      "name": "Pistolet lourd -",
      "description": "<p>Un pistolet lourd. Dissimulable. Si vous faites 1 sur un jet d'attaque (Échec critique) le pistolet est enrayé et cela nécessite une action pour le désenrayer.</p>",
      "dvTable": "SD Pistolet"
    },
    "Heavy Pistol": {
      "name": "Pistolet lourd",
      "description": "<p>Un pistolet lourd. Dissimulable </p>",
      "dvTable": "SD Pistolet"
    },
    "Heavy SMG (Excellent)": {
      "name": "Pistolet-mitrailleur lourd +",
      "description": "<p>Un pistolet-mitrailleur lourd. Non dissimulable. +1 au jet d'attaque.</p>",
      "dvTable": "SD Pistolet-mitrailleur"
    },
    "Heavy SMG (Poor)": {
      "name": "Pistolet-mitrailleur lourd -",
      "description": "<p>Pistolet-mitrailleur lourd. Non dissimulable. Si vous faites 1 sur un jet d'attaque (Échec critique) l'arme est enrayée et cela nécessite une action pour le désenrayer.</p>",
      "dvTable": "SD Pistolet-mitrailleur"
    },
    "Heavy SMG": {
      "name": "Pistolet-mitrailleur lourd",
      "description": "<p>Un pistolet-mitrailleur lourd. Non dissimulable.</p>",
      "dvTable": "SD Pistolet-mitrailleur"
    },
    "Helicopter Blades (Excellent)": {
      "name": "Pale d'hélicoptère +",
      "description": "<p>Récupéré sur un hélicoptère délabré, ces lames sont capables de trancher presque n'importe quoi. +1 au jet d'attaque.</p>"
    },
    "Helicopter Blades (Poor)": {
      "name": "Pale d'hélicoptère -",
      "description": "<p>Récupéré sur un hélicoptère délabré, ces lames sont capables de trancher presque n'importe quoi. Si vous faites 1 sur un jet d'attaque (Échec critique) l'attaque échoue et cela nécessite une action afin que l'arme soit à nouveau utilisable.</p>"
    },
    "Helicopter Blades": {
      "name": "Pale d'hélicoptère",
      "description": "<p>Récupéré sur un hélicoptère délabré, ces lames sont capables de trancher presque n'importe quoi.</p>"
    },
    "Helix": {
      "name": "Helix",
      "description": "<p>Un fusil d'assaut exotique qui n'utilise que le tir automatique. Contient 40 balles, tire 20 balles à chaque attaque. Utilise les règles Tir automatique avec un multiplicateur maximum de 5. Nécessite COR 11 ou supérieur (sauf s'il est monté). Reportez-vous à la description complète de l'élément à la p. 348.</p>",
      "dvTable": "SD Fusil d'assaut"
    },
    "Hurricane Assault Weapon": {
      "name": "Fusil d'assaut Hurricane",
      "description": "<p>Fusil à pompe exotique, 2 Att/round. Ne peut pas viser. Chargeur en cylindre de 16 cartouches.\nRecharger cette arme nécessite deux tours. Tirer avec le fusil d'assaut nécessite COR de 11 ou plus (sauf s'il est monté).</p>",
      "dvTable": "SD Fusil à pompe (Slug)"
    },
    "Lead Pipe (Excellent)": {
      "name": "Tuyau en plomb +",
      "description": "<p>Un cylindre creux, fait en métal ou en fibre de verre. +1 au jet d'attaque.</p>"
    },
    "Lead Pipe (Poor)": {
      "name": "Tuyau en plomb -",
      "description": "<p>Un cylindre creux, fait en métal ou en fibre de verre. Si vous faites 1 sur un jet d'attaque (Échec critique) l'attaque échoue et cela nécessite une action afin que l'arme soit à nouveau utilisable.</p>"
    },
    "Lead Pipe": {
      "name": "Tuyau en plomb",
      "description": "<p>Un cylindre creux, fait en métal ou en fibre de verre.</p>"
    },
    "Light Melee (Excellent)": {
      "name": "Arme de mêlée légère (Excellent)",
      "description": "<p>Arme de mêlée légère de qualité excellente.</p>\n<p>+1 à l'attaque.</p>"
    },
    "Light Melee (Poor)": {
      "name": "Arme de mêlée légère (Mauvais)",
      "description": "<p>Arme de mêlée légère de mauvaise qualité.</p>\n<p>Si vous lancez 1 lors de l'attaque (échec critique) l'arme échoue d'une manière ou d'une autre et nécessite une action pour être réutilisable.</p>"
    },
    "Light Melee": {
      "name": "Arme de mêlée Légère",
      "description": "<p>Arme de mêlée légère générique.</p>"
    },
    "Machete (Excellent)": {
      "name": "Machette +",
      "description": "<p>Un couteau à lame longue qui à une variété d'utilisations. +1 au jet d'attaque.</p>"
    },
    "Machete (Poor)": {
      "name": "Machette -",
      "description": "<p>Un couteau à lame longue qui à une variété d'utilisations. Si vous faites 1 sur un jet d'attaque (Échec critique) l'attaque échoue et cela nécessite une action afin que l'arme soit à nouveau utilisable.</p>"
    },
    "Machete": {
      "name": "Machette",
      "description": "<p>Un couteau à lame longue qui à une variété d'utilisations.</p>"
    },
    "Malorian Arms 3516": {
      "name": "3516 de Malorian Arms",
      "description": "<p>Pistolet exotique très lourd, qualité excellente. Fourni avec une liaison smartgun* qui doit être utilisée. Reportez-vous à la description complète de l'article sur pg. 347.</p>\n<p><em>*Doit être ajouté manuellement après l'acquisition de l'arme</em></p>",
      "dvTable": "SD Pistolet"
    },
    "Martial Arts": {
      "name": "Arts martiaux",
      "description": "<p>Utilise ses poings/pieds pour attaquer, ignore la moitié de l'armure de l'adversaire.</p>"
    },
    "Medium Melee (Excellent)": {
      "name": "Arme de mêlée moyenne (Excellent)",
      "description": "<p>Arme de mêlée intermédiaire générique d'excellente qualité.</p>\n<p>+1 à l'attaque.</p>"
    },
    "Medium Melee (Poor)": {
      "name": "Arme de mêlée moyenne (Mauvais)",
      "description": "<p>Arme de mêlée intermédiaire générique de mauvaise qualité.</p>\n<p>Si vous lancez 1 lors de l'attaque (échec critique) l'arme échoue d'une manière ou d'une autre et nécessite une action pour être réutilisable.</p>"
    },
    "Medium Melee": {
      "name": "Arme de mêlée Moyenne",
      "description": "<p>Arme de mêlée intermédiaire générique.</p>"
    },
    "Medium Pistol (Excellent)": {
      "name": "Pistolet moyen +",
      "description": "<p>Un pistolet de taille moyenne. Dissimulable. +1 au jet d'attaque.</p>",
      "dvTable": "SD Pistolet"
    },
    "Medium Pistol (Poor)": {
      "name": "Pistolet moyen -",
      "description": "<p>Un pistolet de taille moyenne de mauvaise qualité. Dissimulable. Si vous faites 1 sur un jet d'attaque (Échec critique) le pistolet est enrayé et cela nécessite une action pour le désenrayer.</p>",
      "dvTable": "SD Pistolet"
    },
    "Medium Pistol": {
      "name": "Pistolet moyen",
      "description": "<p>Un pistolet de taille moyenne. Dissimulable </p>",
      "dvTable": "SD Pistolet"
    },
    "Microwaver": {
      "name": "Canon à ondes",
      "description": "<p>Pistolet exotique très lourd. Permet de rendre inopérants les cyberimplants ou les composants électriques pendant une minute, à moins que la cible ne réussisse un jet de Cybertech SD15. Reportez-vous à la description complète de l'élément sur p. 347.</p>",
      "dvTable": "SD Pistolet"
    },
    "Mono-Three": {
      "name": "Mono-Trois",
      "description": "<p>Arme exotique de mêlée très lourde à deux mains, excellente qualité. Katana de haute technologie, capable d'ignorer n'importe quelle armure de moins de PA11*. Référez-vous à la description complète de l'article en p. 348.</p>\n<p><em>*Non pris en charge pour le moment, appliquer manuellement les dégâts aux cibles blindées</em></p>"
    },
    "Naginata (Excellent)": {
      "name": "Naginata +",
      "description": "<p>Arme d'origine japonaise, proche du fauchard à lame courbe. Utilisé par les équipes tactiques d'Arasaka lors des confrontations aux corps à corps. +1 au jet d'attaque.</p>"
    },
    "Naginata (Poor)": {
      "name": "Naginata -",
      "description": "<p>Arme d'origine japonaise, proche du fauchard à lame courbe. Utilisé par les équipes tactiques d'Arasaka lors des confrontations aux corps à corps. Si vous faites 1 sur un jet d'attaque (Échec critique) l'attaque échoue et cela nécessite une action afin que l'arme soit à nouveau utilisable.</p>"
    },
    "Naginata": {
      "name": "Naginata",
      "description": "<p>Arme d'origine japonaise, proche du fauchard à lame courbe. Utilisé par les équipes tactiques d'Arasaka lors des confrontations aux corps à corps.</p>"
    },
    "Rippers": {
      "name": "Éventreurs",
      "description": "<p>Cybermatériel de type Arme. Vous devez avoir installé le cybermatériel approprié.</p>"
    },
    "Rocket Launcher (Excellent)": {
      "name": "Lance-roquettes +",
      "description": "<p>Sortez l'artillerie lourde. Ce lance-roquettes fera quelques dégâts. +1 au jet d'attaque.</p>",
      "dvTable": "SD Lance-roquettes"
    },
    "Rocket Launcher (Poor)": {
      "name": "Lance-roquettes -",
      "description": "<p>Sortez l'artillerie lourde. Ce lance-roquettes fera quelques dégâts. Si vous faites 1 sur un jet d'attaque (Échec critique) l'arme est enrayée et cela nécessite une action pour le désenrayer.</p>",
      "dvTable": "SD Lance-roquettes"
    },
    "Rocket Launcher": {
      "name": "Lance-roquettes",
      "description": "<p>Sortez l'artillerie lourde. Ce lance-roquettes fera quelques dégâts.</p>",
      "dvTable": "SD Lance-roquettes"
    },
    "Shotgun (Excellent)": {
      "name": "Fusil à pompe +",
      "description": "<p>Fusil à pompe polyvalent. +1 au jet d'attaque.</p>",
      "dvTable": "SD Fusil à pompe (Slug)"
    },
    "Shotgun (Poor)": {
      "name": "Fusil à pompe -",
      "description": "<p>Un fusil à pompe polyvalent. Si vous faites 1 sur un jet d'attaque (Échec critique) l'arme est enrayée et cela nécessite une action pour le désenrayer.</p>",
      "dvTable": "SD Fusil à pompe (Slug)"
    },
    "Shotgun": {
      "name": "Fusil à pompe",
      "description": "<p>Un fusil à pompe polyvalent. </p>",
      "dvTable": "SD Fusil à pompe (Slug)"
    },
    "Shrieker": {
      "name": "Hurleur",
      "description": "<p>Pistolet Exotique très lourd. Nécessite une protection auditive contre les blessures critiques, sinon réussir un jet de Résistance à la torture/aux drogues SD15 ou subir une blessure critique Oreilles endommagées. Reportez-vous à la description complète de l'article sur le p. 348.</p>",
      "dvTable": "SD Pistolet"
    },
    "Sledgehammer (Excellent)": {
      "name": "Masse +",
      "description": "<p>Une sorte de grand maillet avec une tête métallique plate. +1 au jet d'attaque.</p>"
    },
    "Sledgehammer (Poor)": {
      "name": "Masse -",
      "description": "<p>Une sorte de grand maillet avec une tête métallique plate. Si vous faites 1 sur un jet d'attaque (Échec critique) l'attaque échoue et cela nécessite une action afin que l'arme soit à nouveau utilisable.</p>"
    },
    "Sledgehammer": {
      "name": "Masse",
      "description": "<p>Une sorte de grand maillet avec une tête métallique plate.</p>"
    },
    "SMG (Excellent)": {
      "name": "Pistolet-mitrailleur +",
      "description": "<p>Un pistolet-mitrailleur. Dissimulable. +1 au jet d'attaque.</p>",
      "dvTable": "SD Pistolet-mitrailleur"
    },
    "SMG (Poor)": {
      "name": "Pistolet-mitrailleur -",
      "description": "<p>Pistolet-mitrailleur. Dissimulable. Si vous faites 1 sur un jet d'attaque (Échec critique) l'arme est enrayée et cela nécessite une action pour le désenrayer.</p>",
      "dvTable": "SD Pistolet-mitrailleur"
    },
    "SMG": {
      "name": "Pistolet-mitrailleur",
      "description": "<p>Un pistolet-mitrailleur. Dissimulable.</p>",
      "dvTable": "SD Pistolet-mitrailleur"
    },
    "Sniper Rifle (Excellent)": {
      "name": "Fusil de précision +",
      "description": "<p>Un fusil utilisé afin d'engager des cibles à longue distance. +1 au jet d'attaque.</p>",
      "dvTable": "SD Fusil de précision"
    },
    "Sniper Rifle (Poor)": {
      "name": "Fusil de précision -",
      "description": "<p>Un fusil utilisé afin d'engager des cibles à longue distance. Si vous faites 1 sur un jet d'attaque (Échec critique) l'arme est enrayée et cela nécessite une action pour le désenrayer.</p>",
      "dvTable": "SD Fusil de précision"
    },
    "Sniper Rifle": {
      "name": "Fusil de précision",
      "description": "<p>Un fusil utilisé afin d'engager des cibles à longue distance.</p>",
      "dvTable": "SD Fusil de précision"
    },
    "Spiked Bat (Excellent)": {
      "name": "Batte cloutée +",
      "description": "<p>Une batte de baseball ayant de multiples clous. +1 au jet d'attaque.</p>"
    },
    "Spiked Bat (Poor)": {
      "name": "Batte cloutée -",
      "description": "<p>Une batte de baseball ayant de multiples clous. Si vous faites 1 sur un jet d'attaque (Échec critique) l'attaque échoue et cela nécessite une action afin que l'arme soit à nouveau utilisable.</p>"
    },
    "Spiked Bat": {
      "name": "Batte cloutée",
      "description": "<p>Une batte de baseball ayant de multiples clous.</p>"
    },
    "Stun Baton": {
      "name": "Matraque électrique",
      "description": "<p>Arme exotique de mêlée moyenne à une main. Si les dégâts qu'elle inflige réduisent une cible sous 1 PS, la cible est\nsimplement inconsciente et reste à 1 PS. Les dégâts infligés par cette arme ne peuvent pas causer de blessure critique et\nne perforent pas l'armure</p>"
    },
    "Stun Gun": {
      "name": "Pistolet à impulsion électrique",
      "description": "<p>Pistolet lourd exotique. La cible est inconsciente si les dégâts infligés la réduisent à moins d'1 PS. Ne cause pas de blessures critiques ne de perforation d'armure. Reportez-vous à la description complète de l'objet sur le pg. 349.</p>",
      "dvTable": "SD Pistolet"
    },
    "Sword (Excellent)": {
      "name": "Épée +",
      "description": "<p>Une arme avec une lame et une poignée. Conçue pour couper. +1 au jet d'attaque.</p>"
    },
    "Sword (Poor)": {
      "name": "Épée -",
      "description": "<p>Une arme avec une lame et une poignée. Conçue pour couper. Si vous faites 1 sur un jet d'attaque (Échec critique) l'attaque échoue et cela nécessite une action afin que l'arme soit à nouveau utilisable.</p>"
    },
    "Sword": {
      "name": "Épée",
      "description": "<p>Une arme avec une lame et une poignée.</p>"
    },
    "Thrown Weapon": {
      "name": "Arme de lancer",
      "description": "<p>Le lancer basique d'un objet. Utilisez une action pour faire une attaque à distance à un maximum de 25 m. Les cibles peuvent choisir d'esquiver votre lancer s'ils le peuvent. Les armes de mêlée infligent leurs dégâts de base, mais ne pénètrent pas la moitié des PA.</p>",
      "dvTable": "SD Arme de lancer"
    },
    "Tomahawk (Excellent)": {
      "name": "Tomahawk +",
      "description": "<p>Une hache légère qui peut être lancée. +1 au jet d'attaque.</p>"
    },
    "Tomahawk (Poor)": {
      "name": "Tomahawk -",
      "description": "<p>Une hache légère qui peut être lancée. Si vous faites 1 sur un jet d'attaque (Échec critique) l'attaque échoue et cela nécessite une action afin que l'arme soit à nouveau utilisable.</p>"
    },
    "Tomahawk": {
      "name": "Tomahawk",
      "description": "<p>Une hache légère qui peut être lancée.</p>"
    },
    "U-56 Grenade Launcher \"Cowboy\"": {
      "name": "Lance-Grenades \"Cowboy\" U-56",
      "description": "<p>Lance-grenades exotique à 2 Att/round. Capacité de quatre grenades. Peut lancer n'importe quel type de grenade. Recharger cette arme demande deux tours. Tirer avec le lance-grenades nécessite COR de 11 ou plus (sauf s'il est monté).</p>",
      "dvTable": "SD Lance-grenades"
    },
    "Unarmed": {
      "name": "Désarmé",
      "description": "<p>Utilise ses poings/pieds pour attaquer, n'ignore pas la moitié de l'armure de l'adversaire.</p>"
    },
    "Very Heavy Melee (Excellent)": {
      "name": "Arme de mêlée très lourde (Excellent)",
      "description": "<p>Arme de mêlée très lourde générique d'excellente qualité.</p>\n<p>+1 à l'attaque.</p>"
    },
    "Very Heavy Melee (Poor)": {
      "name": "Arme de mêlée très lourde (Mauvais)",
      "description": "<p>Arme de mêlée très lourde générique de mauvaise qualité.</p>\n<p>Si vous lancez 1 lors de l'attaque (échec critique) l'arme échoue d'une manière ou d'une autre et nécessite une action pour être à nouveau utilisable.</p>"
    },
    "Very Heavy Melee": {
      "name": "Arme de mêlée très lourde",
      "description": "<p>Arme de mêlée très lourde générique.</p>"
    },
    "Very Heavy Pistol (Excellent)": {
      "name": "Pistolet très lourd +",
      "description": "<p>Un pistolet très lourd. Non dissimulable. +1 au jet d'attaque.</p>",
      "dvTable": "SD Pistolet"
    },
    "Very Heavy Pistol (Poor)": {
      "name": "Pistolet très lourd -",
      "description": "<p>Un pistolet très lourd. Non dissimulable. Si vous faites 1 sur un jet d'attaque (Échec critique) le pistolet est enrayé et cela nécessite une action pour le désenrayer.</p>",
      "dvTable": "SD Pistolet"
    },
    "Very Heavy Pistol": {
      "name": "Pistolet très lourd",
      "description": "<p>Un pistolet très lourd. Non dissimulable </p>",
      "dvTable": "SD Pistolet"
    }
  }
}