{
  "$schema": "http://json-schema.org/draft-06/schema#",
  "$ref": "#/definitions/CPRC-Cyberdeck",
  "definitions": {
    "CPRC-Cyberdeck": {
      "type": "object",
      "additionalProperties": false,
      "properties": {
        "_id": {
          "$ref": "./components/id.json"
        },
        "_key": {
          "$ref": "./components/key.json"
        },
        "effects": {
          "$ref": "./components/effects.json"
        },
        "flags": {
          "$ref": "./components/flags.json"
        },
        "img": {
          "$ref": "./components/img.json"
        },
        "name": {
          "$ref": "./components/name.json"
        },
        "type": {
          "type": "string",
          "const": "cyberdeck"
        },
        "system": {
          "$ref": "#/definitions/System"
        }
      },
      "required": ["_id", "_key", "effects", "img", "name", "system", "type"]
    },
    "System": {
      "type": "object",
      "additionalProperties": false,
      "properties": {
        "brand": {
          "$ref": "./components/physical/brand.json"
        },
        "concealable": {
          "$ref": "./components/physical/concealable.json"
        },
        "description": {
          "$ref": "./components/common/description.json"
        },
        "equipped": {
          "$ref": "./components/equippable/equipped.json"
        },
        "favorite": {
          "$ref": "./components/common/favorite.json"
        },
        "installLocation": {
          "$ref": "./components/installable/installLocation.json"
        },
        "installedItems": {
          "$ref": "./components/container/installedItems.json"
        },
        "isElectronic": {
          "$ref": "./components/electronic/isElectronic.json"
        },
        "price": {
          "$ref": "./components/valuable/price.json"
        },
        "providesHardening": {
          "$ref": "./components/electronic/providesHardening.json"
        },
        "quality": {
          "$ref": "./components/quality.json"
        },
        "size": {
          "$ref": "./components/installable/size.json"
        },
        "source": {
          "$ref": "./components/common/source.json"
        }
      },
      "required": [
        "brand",
        "concealable",
        "description",
        "equipped",
        "favorite",
        "installLocation",
        "installedItems",
        "price",
        "size",
        "source"
      ]
    }
  }
}
